<svg width="282" height="122" viewBox="0 0 282 122" fill="none" xmlns="http://www.w3.org/2000/svg">
<path fill-rule="evenodd" clip-rule="evenodd" d="M4 0C1.79086 0 0 1.79086 0 4V118C0 120.209 1.79087 122 4.00001 122H278C280.209 122 282 120.209 282 118V4C282 1.79086 280.209 0 278 0H4ZM67.7009 54.2278H26.9654V66.4484H67.7009V54.2278ZM101.919 59.9307L77.7829 87.7327V97H123.814V84.8812H96.8267L112.001 67.976C115.327 64.2419 118.111 60.6097 120.351 57.0793C122.66 53.481 123.814 49.7808 123.814 45.9788C123.814 43.0595 123.237 40.3438 122.083 37.8318C120.996 35.2519 119.435 33.0114 117.398 31.1104C115.429 29.1415 113.053 27.614 110.269 26.5277C107.554 25.3735 104.566 24.7964 101.308 24.7964C98.0488 24.7964 95.0275 25.3735 92.244 26.5277C89.5283 27.614 87.152 29.1415 85.1153 31.1104C83.1464 33.0114 81.5848 35.2519 80.4307 37.8318C79.3444 40.3438 78.8013 43.0595 78.8013 45.9788H92.6513C92.6513 43.1274 93.4321 40.9209 94.9936 39.3593C96.5551 37.7978 98.6598 37.0171 101.308 37.0171C103.955 37.0171 106.06 37.7978 107.622 39.3593C109.183 40.9209 109.964 43.1274 109.964 45.9788C109.964 47.9477 109.285 50.0184 107.927 52.191C106.569 54.2957 104.566 56.8756 101.919 59.9307ZM146.3 96.2871C149.288 97.3734 152.784 97.9165 156.79 97.9165C160.795 97.9165 164.292 97.3734 167.279 96.2871C170.266 95.2009 172.744 93.4017 174.713 90.8897C176.75 88.3777 178.278 85.1188 179.296 81.1132C180.314 77.0396 180.824 72.0495 180.824 66.1429V55.959C180.824 50.1882 180.314 45.3339 179.296 41.3961C178.278 37.3905 176.75 34.1656 174.713 31.7214C172.744 29.2773 170.266 27.5121 167.279 26.4258C164.292 25.3396 160.795 24.7964 156.79 24.7964C152.784 24.7964 149.288 25.3396 146.3 26.4258C143.313 27.5121 140.801 29.2773 138.764 31.7214C136.795 34.1656 135.302 37.3905 134.283 41.3961C133.265 45.3339 132.756 50.1882 132.756 55.959V66.1429C132.756 72.0495 133.265 77.0396 134.283 81.1132C135.302 85.1188 136.795 88.3777 138.764 90.8897C140.801 93.4017 143.313 95.2009 146.3 96.2871ZM160.863 84.983C159.709 85.4583 158.351 85.6959 156.79 85.6959C155.228 85.6959 153.836 85.4583 152.614 84.983C151.46 84.4399 150.476 83.4555 149.661 82.0297C148.914 80.604 148.337 78.6351 147.93 76.1231C147.522 73.5432 147.319 70.2164 147.319 66.1429V55.959C147.319 52.0213 147.522 48.8303 147.93 46.3862C148.337 43.8742 148.914 41.9393 149.661 40.5814C150.476 39.1557 151.46 38.2052 152.614 37.7299C153.836 37.1868 155.228 36.9152 156.79 36.9152C158.351 36.9152 159.709 37.1868 160.863 37.7299C162.085 38.2052 163.07 39.1557 163.817 40.5814C164.631 41.9393 165.242 43.8742 165.65 46.3862C166.057 48.8303 166.261 52.0213 166.261 55.959V66.1429C166.261 70.2164 166.057 73.5432 165.65 76.1231C165.242 78.6351 164.631 80.604 163.817 82.0297C163.07 83.4555 162.085 84.4399 160.863 84.983ZM190.478 55.2462C193.194 57.894 196.928 59.2179 201.681 59.2179C206.433 59.2179 210.133 57.894 212.781 55.2462C215.497 52.5305 216.855 48.7964 216.855 44.0439V39.9704C216.855 35.2179 215.497 31.5178 212.781 28.87C210.133 26.1543 206.433 24.7964 201.681 24.7964C196.928 24.7964 193.194 26.1543 190.478 28.87C187.831 31.5178 186.507 35.2179 186.507 39.9704V44.0439C186.507 48.7964 187.831 52.5305 190.478 55.2462ZM205.652 49.5432C204.77 50.5616 203.446 51.0708 201.681 51.0708C199.915 51.0708 198.558 50.5616 197.607 49.5432C196.725 48.4569 196.283 46.6238 196.283 44.0439V39.9704C196.283 37.3905 196.725 35.5913 197.607 34.5729C198.558 33.4866 199.915 32.9435 201.681 32.9435C203.446 32.9435 204.77 33.4866 205.652 34.5729C206.603 35.5913 207.078 37.3905 207.078 39.9704V44.0439C207.078 46.6238 206.603 48.4569 205.652 49.5432ZM250.258 25.713H238.139L190.58 97H202.699L250.258 25.713ZM228.057 93.843C230.773 96.4908 234.507 97.8147 239.259 97.8147C244.012 97.8147 247.712 96.4908 250.36 93.843C253.075 91.1273 254.433 87.3932 254.433 82.6408V78.5672C254.433 73.8147 253.075 70.1146 250.36 67.4668C247.712 64.7511 244.012 63.3933 239.259 63.3933C234.507 63.3933 230.773 64.7511 228.057 67.4668C225.409 70.1146 224.085 73.8147 224.085 78.5672V82.6408C224.085 87.3932 225.409 91.1273 228.057 93.843ZM243.231 88.14C242.348 89.1584 241.024 89.6676 239.259 89.6676C237.494 89.6676 236.136 89.1584 235.186 88.14C234.303 87.0538 233.862 85.2207 233.862 82.6408V78.5672C233.862 75.9873 234.303 74.1881 235.186 73.1698C236.136 72.0835 237.494 71.5403 239.259 71.5403C241.024 71.5403 242.348 72.0835 243.231 73.1698C244.181 74.1881 244.657 75.9873 244.657 78.5672V82.6408C244.657 85.2207 244.181 87.0538 243.231 88.14Z" fill="white"/>
</svg>
